<svg width="350" height="71" viewBox="0 0 350 71" fill="none" xmlns="http://www.w3.org/2000/svg">
<g filter="url(#filter0_d)">
<rect x="2" width="344" height="63" rx="8" fill="#B8F0E8"/>
<rect x="3.5" y="1.5" width="341" height="60" rx="6.5" stroke="#A6E9E0" stroke-width="3"/>
</g>
<path d="M20.634 22.216C19.638 22.216 18.672 22.084 17.736 21.82C16.812 21.544 16.068 21.19 15.504 20.758L16.494 18.562C17.034 18.958 17.676 19.276 18.42 19.516C19.164 19.756 19.908 19.876 20.652 19.876C21.48 19.876 22.092 19.756 22.488 19.516C22.884 19.264 23.082 18.934 23.082 18.526C23.082 18.226 22.962 17.98 22.722 17.788C22.494 17.584 22.194 17.422 21.822 17.302C21.462 17.182 20.97 17.05 20.346 16.906C19.386 16.678 18.6 16.45 17.988 16.222C17.376 15.994 16.848 15.628 16.404 15.124C15.972 14.62 15.756 13.948 15.756 13.108C15.756 12.376 15.954 11.716 16.35 11.128C16.746 10.528 17.34 10.054 18.132 9.706C18.936 9.358 19.914 9.184 21.066 9.184C21.87 9.184 22.656 9.28 23.424 9.472C24.192 9.664 24.864 9.94 25.44 10.3L24.54 12.514C23.376 11.854 22.212 11.524 21.048 11.524C20.232 11.524 19.626 11.656 19.23 11.92C18.846 12.184 18.654 12.532 18.654 12.964C18.654 13.396 18.876 13.72 19.32 13.936C19.776 14.14 20.466 14.344 21.39 14.548C22.35 14.776 23.136 15.004 23.748 15.232C24.36 15.46 24.882 15.82 25.314 16.312C25.758 16.804 25.98 17.47 25.98 18.31C25.98 19.03 25.776 19.69 25.368 20.29C24.972 20.878 24.372 21.346 23.568 21.694C22.764 22.042 21.786 22.216 20.634 22.216ZM39.4385 22L39.4205 14.44L35.7125 20.668H34.3985L30.7085 14.602V22H27.9725V9.4H30.3845L35.1005 17.23L39.7445 9.4H42.1385L42.1745 22H39.4385ZM53.4619 19.3H47.6119L46.4959 22H43.5079L49.1239 9.4H52.0039L57.6379 22H54.5779L53.4619 19.3ZM52.5439 17.086L50.5459 12.262L48.5479 17.086H52.5439ZM75.5988 9.4V22H73.2048L66.9228 14.35V22H64.0428V9.4H66.4548L72.7188 17.05V9.4H75.5988ZM87.8679 17.194C87.8679 17.23 87.8499 17.482 87.8139 17.95H80.4879C80.6199 18.55 80.9319 19.024 81.4239 19.372C81.9159 19.72 82.5279 19.894 83.2599 19.894C83.7639 19.894 84.2079 19.822 84.5919 19.678C84.9879 19.522 85.3539 19.282 85.6899 18.958L87.1839 20.578C86.2719 21.622 84.9399 22.144 83.1879 22.144C82.0959 22.144 81.1299 21.934 80.2899 21.514C79.4499 21.082 78.8019 20.488 78.3459 19.732C77.8899 18.976 77.6619 18.118 77.6619 17.158C77.6619 16.21 77.8839 15.358 78.3279 14.602C78.7839 13.834 79.4019 13.24 80.1819 12.82C80.9739 12.388 81.8559 12.172 82.8279 12.172C83.7759 12.172 84.6339 12.376 85.4019 12.784C86.1699 13.192 86.7699 13.78 87.2019 14.548C87.6459 15.304 87.8679 16.186 87.8679 17.194ZM82.8459 14.296C82.2099 14.296 81.6759 14.476 81.2439 14.836C80.8119 15.196 80.5479 15.688 80.4519 16.312H85.2219C85.1259 15.7 84.8619 15.214 84.4299 14.854C83.9979 14.482 83.4699 14.296 82.8459 14.296ZM99.7274 12.316V20.38C99.7274 22.156 99.2654 23.476 98.3414 24.34C97.4174 25.204 96.0674 25.636 94.2914 25.636C93.3554 25.636 92.4674 25.522 91.6274 25.294C90.7874 25.066 90.0914 24.736 89.5394 24.304L90.6554 22.288C91.0634 22.624 91.5794 22.888 92.2034 23.08C92.8274 23.284 93.4514 23.386 94.0754 23.386C95.0474 23.386 95.7614 23.164 96.2174 22.72C96.6854 22.288 96.9194 21.628 96.9194 20.74V20.326C96.1874 21.13 95.1674 21.532 93.8594 21.532C92.9714 21.532 92.1554 21.34 91.4114 20.956C90.6794 20.56 90.0974 20.008 89.6654 19.3C89.2334 18.592 89.0174 17.776 89.0174 16.852C89.0174 15.928 89.2334 15.112 89.6654 14.404C90.0974 13.696 90.6794 13.15 91.4114 12.766C92.1554 12.37 92.9714 12.172 93.8594 12.172C95.2634 12.172 96.3314 12.634 97.0634 13.558V12.316H99.7274ZM94.4174 19.228C95.1614 19.228 95.7674 19.012 96.2354 18.58C96.7154 18.136 96.9554 17.56 96.9554 16.852C96.9554 16.144 96.7154 15.574 96.2354 15.142C95.7674 14.698 95.1614 14.476 94.4174 14.476C93.6734 14.476 93.0614 14.698 92.5814 15.142C92.1014 15.574 91.8614 16.144 91.8614 16.852C91.8614 17.56 92.1014 18.136 92.5814 18.58C93.0614 19.012 93.6734 19.228 94.4174 19.228ZM111.827 17.194C111.827 17.23 111.809 17.482 111.773 17.95H104.447C104.579 18.55 104.891 19.024 105.383 19.372C105.875 19.72 106.487 19.894 107.219 19.894C107.723 19.894 108.167 19.822 108.551 19.678C108.947 19.522 109.313 19.282 109.649 18.958L111.143 20.578C110.231 21.622 108.899 22.144 107.147 22.144C106.055 22.144 105.089 21.934 104.249 21.514C103.409 21.082 102.761 20.488 102.305 19.732C101.849 18.976 101.621 18.118 101.621 17.158C101.621 16.21 101.843 15.358 102.287 14.602C102.743 13.834 103.361 13.24 104.141 12.82C104.933 12.388 105.815 12.172 106.787 12.172C107.735 12.172 108.593 12.376 109.361 12.784C110.129 13.192 110.729 13.78 111.161 14.548C111.605 15.304 111.827 16.186 111.827 17.194ZM106.805 14.296C106.169 14.296 105.635 14.476 105.203 14.836C104.771 15.196 104.507 15.688 104.411 16.312H109.181C109.085 15.7 108.821 15.214 108.389 14.854C107.957 14.482 107.429 14.296 106.805 14.296ZM116.378 13.594C116.714 13.126 117.164 12.772 117.728 12.532C118.304 12.292 118.964 12.172 119.708 12.172V14.764C119.396 14.74 119.186 14.728 119.078 14.728C118.274 14.728 117.644 14.956 117.188 15.412C116.732 15.856 116.504 16.528 116.504 17.428V22H113.696V12.316H116.378V13.594ZM121.378 12.316H124.186V22H121.378V12.316ZM122.782 10.966C122.266 10.966 121.846 10.816 121.522 10.516C121.198 10.216 121.036 9.844 121.036 9.4C121.036 8.956 121.198 8.584 121.522 8.284C121.846 7.984 122.266 7.834 122.782 7.834C123.298 7.834 123.718 7.978 124.042 8.266C124.366 8.554 124.528 8.914 124.528 9.346C124.528 9.814 124.366 10.204 124.042 10.516C123.718 10.816 123.298 10.966 122.782 10.966ZM137.182 14.53C138.286 14.71 139.132 15.124 139.72 15.772C140.308 16.408 140.602 17.2 140.602 18.148C140.602 18.88 140.41 19.558 140.026 20.182C139.642 20.794 139.054 21.286 138.262 21.658C137.482 22.03 136.522 22.216 135.382 22.216C134.494 22.216 133.618 22.102 132.754 21.874C131.902 21.634 131.176 21.298 130.576 20.866L131.71 18.634C132.19 18.994 132.742 19.276 133.366 19.48C134.002 19.672 134.65 19.768 135.31 19.768C136.042 19.768 136.618 19.63 137.038 19.354C137.458 19.066 137.668 18.664 137.668 18.148C137.668 17.116 136.882 16.6 135.31 16.6H133.978V14.674L136.57 11.74H131.206V9.4H140.026V11.29L137.182 14.53ZM159.304 22L159.286 14.44L155.578 20.668H154.264L150.574 14.602V22H147.838V9.4H150.25L154.966 17.23L159.61 9.4H162.004L162.04 22H159.304ZM174.317 17.194C174.317 17.23 174.299 17.482 174.263 17.95H166.937C167.069 18.55 167.381 19.024 167.873 19.372C168.365 19.72 168.977 19.894 169.709 19.894C170.213 19.894 170.657 19.822 171.041 19.678C171.437 19.522 171.803 19.282 172.139 18.958L173.633 20.578C172.721 21.622 171.389 22.144 169.637 22.144C168.545 22.144 167.579 21.934 166.739 21.514C165.899 21.082 165.251 20.488 164.795 19.732C164.339 18.976 164.111 18.118 164.111 17.158C164.111 16.21 164.333 15.358 164.777 14.602C165.233 13.834 165.851 13.24 166.631 12.82C167.423 12.388 168.305 12.172 169.277 12.172C170.225 12.172 171.083 12.376 171.851 12.784C172.619 13.192 173.219 13.78 173.651 14.548C174.095 15.304 174.317 16.186 174.317 17.194ZM169.295 14.296C168.659 14.296 168.125 14.476 167.693 14.836C167.261 15.196 166.997 15.688 166.901 16.312H171.671C171.575 15.7 171.311 15.214 170.879 14.854C170.447 14.482 169.919 14.296 169.295 14.296ZM186.051 8.644V22H183.369V20.884C182.673 21.724 181.665 22.144 180.345 22.144C179.433 22.144 178.605 21.94 177.861 21.532C177.129 21.124 176.553 20.542 176.133 19.786C175.713 19.03 175.503 18.154 175.503 17.158C175.503 16.162 175.713 15.286 176.133 14.53C176.553 13.774 177.129 13.192 177.861 12.784C178.605 12.376 179.433 12.172 180.345 12.172C181.581 12.172 182.547 12.562 183.243 13.342V8.644H186.051ZM180.831 19.84C181.539 19.84 182.127 19.6 182.595 19.12C183.063 18.628 183.297 17.974 183.297 17.158C183.297 16.342 183.063 15.694 182.595 15.214C182.127 14.722 181.539 14.476 180.831 14.476C180.111 14.476 179.517 14.722 179.049 15.214C178.581 15.694 178.347 16.342 178.347 17.158C178.347 17.974 178.581 18.628 179.049 19.12C179.517 19.6 180.111 19.84 180.831 19.84ZM192.556 12.172C194.056 12.172 195.208 12.532 196.012 13.252C196.816 13.96 197.218 15.034 197.218 16.474V22H194.59V20.794C194.062 21.694 193.078 22.144 191.638 22.144C190.894 22.144 190.246 22.018 189.694 21.766C189.154 21.514 188.74 21.166 188.452 20.722C188.164 20.278 188.02 19.774 188.02 19.21C188.02 18.31 188.356 17.602 189.028 17.086C189.712 16.57 190.762 16.312 192.178 16.312H194.41C194.41 15.7 194.224 15.232 193.852 14.908C193.48 14.572 192.922 14.404 192.178 14.404C191.662 14.404 191.152 14.488 190.648 14.656C190.156 14.812 189.736 15.028 189.388 15.304L188.38 13.342C188.908 12.97 189.538 12.682 190.27 12.478C191.014 12.274 191.776 12.172 192.556 12.172ZM192.34 20.254C192.82 20.254 193.246 20.146 193.618 19.93C193.99 19.702 194.254 19.372 194.41 18.94V17.95H192.484C191.332 17.95 190.756 18.328 190.756 19.084C190.756 19.444 190.894 19.732 191.17 19.948C191.458 20.152 191.848 20.254 192.34 20.254ZM205.645 12.172C206.845 12.172 207.811 12.532 208.543 13.252C209.287 13.972 209.659 15.04 209.659 16.456V22H206.851V16.888C206.851 16.12 206.683 15.55 206.347 15.178C206.011 14.794 205.525 14.602 204.889 14.602C204.181 14.602 203.617 14.824 203.197 15.268C202.777 15.7 202.567 16.348 202.567 17.212V22H199.759V12.316H202.441V13.45C202.813 13.042 203.275 12.73 203.827 12.514C204.379 12.286 204.985 12.172 205.645 12.172ZM21.612 35.68V37H15.42V35.956L18.756 32.788C19.132 32.428 19.384 32.116 19.512 31.852C19.648 31.58 19.716 31.312 19.716 31.048C19.716 30.656 19.584 30.356 19.32 30.148C19.056 29.94 18.668 29.836 18.156 29.836C17.3 29.836 16.644 30.128 16.188 30.712L15.096 29.872C15.424 29.432 15.864 29.092 16.416 28.852C16.976 28.604 17.6 28.48 18.288 28.48C19.2 28.48 19.928 28.696 20.472 29.128C21.016 29.56 21.288 30.148 21.288 30.892C21.288 31.348 21.192 31.776 21 32.176C20.808 32.576 20.44 33.032 19.896 33.544L17.652 35.68H21.612ZM25.9812 37.12C25.3092 37.12 24.7092 36.952 24.1812 36.616C23.6532 36.272 23.2372 35.776 22.9332 35.128C22.6292 34.472 22.4772 33.696 22.4772 32.8C22.4772 31.904 22.6292 31.132 22.9332 30.484C23.2372 29.828 23.6532 29.332 24.1812 28.996C24.7092 28.652 25.3092 28.48 25.9812 28.48C26.6532 28.48 27.2532 28.652 27.7812 28.996C28.3172 29.332 28.7372 29.828 29.0412 30.484C29.3452 31.132 29.4972 31.904 29.4972 32.8C29.4972 33.696 29.3452 34.472 29.0412 35.128C28.7372 35.776 28.3172 36.272 27.7812 36.616C27.2532 36.952 26.6532 37.12 25.9812 37.12ZM25.9812 35.764C26.5812 35.764 27.0532 35.516 27.3972 35.02C27.7492 34.524 27.9252 33.784 27.9252 32.8C27.9252 31.816 27.7492 31.076 27.3972 30.58C27.0532 30.084 26.5812 29.836 25.9812 29.836C25.3892 29.836 24.9172 30.084 24.5652 30.58C24.2212 31.076 24.0492 31.816 24.0492 32.8C24.0492 33.784 24.2212 34.524 24.5652 35.02C24.9172 35.516 25.3892 35.764 25.9812 35.764ZM33.3968 28.6V37H31.8368V29.908H30.0608V28.6H33.3968ZM38.8792 31.816C39.4312 31.816 39.9272 31.924 40.3672 32.14C40.8072 32.348 41.1512 32.648 41.3992 33.04C41.6472 33.432 41.7712 33.884 41.7712 34.396C41.7712 34.94 41.6352 35.42 41.3632 35.836C41.0912 36.244 40.7232 36.56 40.2592 36.784C39.7952 37.008 39.2752 37.12 38.6992 37.12C37.5472 37.12 36.6512 36.76 36.0112 36.04C35.3792 35.32 35.0632 34.288 35.0632 32.944C35.0632 32 35.2352 31.196 35.5792 30.532C35.9232 29.86 36.4032 29.352 37.0192 29.008C37.6432 28.656 38.3632 28.48 39.1792 28.48C39.6112 28.48 40.0152 28.528 40.3912 28.624C40.7752 28.712 41.1072 28.844 41.3872 29.02L40.8112 30.196C40.3952 29.924 39.8632 29.788 39.2152 29.788C38.4072 29.788 37.7752 30.036 37.3192 30.532C36.8632 31.028 36.6352 31.744 36.6352 32.68V32.692C36.8832 32.404 37.1992 32.188 37.5832 32.044C37.9672 31.892 38.3992 31.816 38.8792 31.816ZM38.6152 35.896C39.1032 35.896 39.4992 35.768 39.8032 35.512C40.1072 35.248 40.2592 34.9 40.2592 34.468C40.2592 34.028 40.1072 33.68 39.8032 33.424C39.4992 33.168 39.0912 33.04 38.5792 33.04C38.0752 33.04 37.6632 33.176 37.3432 33.448C37.0312 33.72 36.8752 34.064 36.8752 34.48C36.8752 34.888 37.0272 35.228 37.3312 35.5C37.6432 35.764 38.0712 35.896 38.6152 35.896ZM46.035 33.04H49.335V34.288H46.035V33.04ZM59.9206 35.68V37H53.7286V35.956L57.0646 32.788C57.4406 32.428 57.6926 32.116 57.8206 31.852C57.9566 31.58 58.0246 31.312 58.0246 31.048C58.0246 30.656 57.8926 30.356 57.6286 30.148C57.3646 29.94 56.9766 29.836 56.4646 29.836C55.6086 29.836 54.9526 30.128 54.4966 30.712L53.4046 29.872C53.7326 29.432 54.1726 29.092 54.7246 28.852C55.2846 28.604 55.9086 28.48 56.5966 28.48C57.5086 28.48 58.2366 28.696 58.7806 29.128C59.3246 29.56 59.5966 30.148 59.5966 30.892C59.5966 31.348 59.5006 31.776 59.3086 32.176C59.1166 32.576 58.7486 33.032 58.2046 33.544L55.9606 35.68H59.9206ZM64.2898 37.12C63.6178 37.12 63.0178 36.952 62.4898 36.616C61.9618 36.272 61.5458 35.776 61.2418 35.128C60.9378 34.472 60.7858 33.696 60.7858 32.8C60.7858 31.904 60.9378 31.132 61.2418 30.484C61.5458 29.828 61.9618 29.332 62.4898 28.996C63.0178 28.652 63.6178 28.48 64.2898 28.48C64.9618 28.48 65.5618 28.652 66.0898 28.996C66.6258 29.332 67.0458 29.828 67.3498 30.484C67.6538 31.132 67.8058 31.904 67.8058 32.8C67.8058 33.696 67.6538 34.472 67.3498 35.128C67.0458 35.776 66.6258 36.272 66.0898 36.616C65.5618 36.952 64.9618 37.12 64.2898 37.12ZM64.2898 35.764C64.8898 35.764 65.3618 35.516 65.7058 35.02C66.0578 34.524 66.2338 33.784 66.2338 32.8C66.2338 31.816 66.0578 31.076 65.7058 30.58C65.3618 30.084 64.8898 29.836 64.2898 29.836C63.6978 29.836 63.2258 30.084 62.8738 30.58C62.5298 31.076 62.3578 31.816 62.3578 32.8C62.3578 33.784 62.5298 34.524 62.8738 35.02C63.2258 35.516 63.6978 35.764 64.2898 35.764ZM71.7054 28.6V37H70.1454V29.908H68.3694V28.6H71.7054ZM76.2038 28.48C77.3558 28.48 78.2478 28.84 78.8798 29.56C79.5198 30.28 79.8398 31.312 79.8398 32.656C79.8398 33.6 79.6678 34.408 79.3238 35.08C78.9798 35.744 78.4958 36.252 77.8718 36.604C77.2558 36.948 76.5398 37.12 75.7238 37.12C75.2918 37.12 74.8838 37.076 74.4998 36.988C74.1238 36.892 73.7958 36.756 73.5158 36.58L74.0918 35.404C74.5078 35.676 75.0398 35.812 75.6878 35.812C76.4958 35.812 77.1278 35.564 77.5838 35.068C78.0398 34.572 78.2678 33.856 78.2678 32.92V32.908C78.0198 33.196 77.7038 33.416 77.3198 33.568C76.9358 33.712 76.5038 33.784 76.0238 33.784C75.4718 33.784 74.9758 33.68 74.5358 33.472C74.0958 33.256 73.7518 32.952 73.5038 32.56C73.2558 32.168 73.1318 31.716 73.1318 31.204C73.1318 30.66 73.2678 30.184 73.5398 29.776C73.8118 29.36 74.1798 29.04 74.6438 28.816C75.1078 28.592 75.6278 28.48 76.2038 28.48ZM76.3238 32.56C76.8278 32.56 77.2358 32.424 77.5478 32.152C77.8678 31.88 78.0278 31.536 78.0278 31.12C78.0278 30.712 77.8718 30.376 77.5598 30.112C77.2558 29.84 76.8318 29.704 76.2878 29.704C75.7998 29.704 75.4038 29.836 75.0998 30.1C74.7958 30.356 74.6438 30.7 74.6438 31.132C74.6438 31.572 74.7958 31.92 75.0998 32.176C75.4038 32.432 75.8118 32.56 76.3238 32.56Z" fill="#5BABA1"/>
<defs>
<filter id="filter0_d" x="-2" y="0" width="352" height="71" filterUnits="userSpaceOnUse" color-interpolation-filters="sRGB">
<feFlood flood-opacity="0" result="BackgroundImageFix"/>
<feColorMatrix in="SourceAlpha" type="matrix" values="0 0 0 0 0 0 0 0 0 0 0 0 0 0 0 0 0 0 127 0"/>
<feOffset dy="4"/>
<feGaussianBlur stdDeviation="2"/>
<feColorMatrix type="matrix" values="0 0 0 0 0 0 0 0 0 0 0 0 0 0 0 0 0 0 0.25 0"/>
<feBlend mode="normal" in2="BackgroundImageFix" result="effect1_dropShadow"/>
<feBlend mode="normal" in="SourceGraphic" in2="effect1_dropShadow" result="shape"/>
</filter>
</defs>
</svg>
